[gd_scene load_steps=3 format=2]

[ext_resource path="res://src/chat/chat_font.tres" type="DynamicFont" id=1]
[ext_resource path="res://src/chat/ChatName.gd" type="Script" id=2]

[node name="ChatName" type="Node2D"]
script = ExtResource( 2 )

[node name="ColorRect" type="ColorRect" parent="."]
margin_right = 119.0
margin_bottom = 42.0
color = Color( 0.12549, 0, 1, 1 )
__meta__ = {
"_edit_use_anchors_": false
}

[node name="Username" type="Label" parent="."]
margin_left = 13.8591
margin_top = 6.2996
margin_right = 109.859
margin_bottom = 32.2996
custom_fonts/font = ExtResource( 1 )
text = "Username"
__meta__ = {
"_edit_use_anchors_": false
}
