[gd_scene load_steps=3 format=2]

[ext_resource path="res://theme.tres" type="Theme" id=1]
[ext_resource path="res://src/billboard/Billboard.gd" type="Script" id=2]

[node name="Billboard" type="Node2D"]
script = ExtResource( 2 )

[node name="Control" type="Control" parent="."]
anchor_right = 1.0
anchor_bottom = 1.0
rect_min_size = Vector2( 1024, 576 )
mouse_filter = 2

[node name="ColorRect" type="ColorRect" parent="Control"]
margin_left = 77.0
margin_top = 341.0
margin_right = 948.0
margin_bottom = 476.0
rect_min_size = Vector2( 844, 135 )
color = Color( 1, 1, 1, 0.25098 )
__meta__ = {
"_edit_use_anchors_": false
}

[node name="Label" type="Label" parent="Control"]
anchor_top = 1.0
anchor_right = 1.0
anchor_bottom = 1.0
margin_left = 90.0
margin_top = -235.0
margin_right = -90.0
margin_bottom = -100.0
theme = ExtResource( 1 )
text = "BILLBOARD
"
align = 1
autowrap = true
clip_text = true
__meta__ = {
"_edit_use_anchors_": false
}

[node name="Timer" type="Timer" parent="."]
wait_time = 20.0
autostart = true

[connection signal="timeout" from="Timer" to="." method="_on_Timer_timeout"]
